{
  "appId": "org.yapca.io",
  "appName": "YAPCA",
  "bundledWebRuntime": false,
  "npmClient": "yarn",
  "webDir": "www",
  "plugins": {
    "SplashScreen": {
      "launchAutoHide": false,
      "androidScaleType": "CENTER_CROP",
      "showSpinner": true,
      "splashFullScreen": false,
      "splashImmersive": false
    }
  }
}